{"failedCount":0,"prefixedPath":"classpath:features\/getList.feature","packageQualifiedName":"features.getList","loopIndex":-1,"relativePath":"features\/getList.feature","scenarioResults":[{"sectionIndex":0,"stepResults":[{"result":{"nanos":57903750,"startTime":1725479130529,"endTime":1725479130587,"millis":57.90375,"status":"passed"},"step":{"background":true,"line":3,"prefix":"*","index":0,"text":"url 'https:\/\/reqres.in\/api\/'"}},{"result":{"nanos":624167,"startTime":1725479130588,"endTime":1725479130589,"millis":0.624167,"status":"passed"},"step":{"line":5,"prefix":"Given","index":0,"text":"path 'users?page=1';"}},{"result":{"nanos":811771625,"startTime":1725479130589,"endTime":1725479131401,"millis":811.771625,"status":"passed"},"step":{"line":6,"prefix":"When","index":1,"text":"method GET"},"stepLog":"15:45:30.931 request:\n1 > GET https:\/\/reqres.in\/api\/users%3Fpage=1\n1 > Host: reqres.in\n1 > Connection: Keep-Alive\n1 > User-Agent: Apache-HttpClient\/4.5.14 (Java\/17.0.9)\n1 > Accept-Encoding: gzip,deflate\n\n\n15:45:31.367 response time in milliseconds: 420\n1 < 200\n1 < Date: Wed, 04 Sep 2024 19:45:31 GMT\n1 < Content-Type: application\/json; charset=utf-8\n1 < Transfer-Encoding: chunked\n1 < Connection: keep-alive\n1 < Report-To: {\"group\":\"heroku-nel\",\"max_age\":3600,\"endpoints\":[{\"url\":\"https:\/\/nel.heroku.com\/reports?ts=1725478610&sid=c4c9725f-1ab0-44d8-820f-430df2718e11&s=3QZb5ag58%2FxD3kE1%2Bof2rjPwE4b5qwm9emR8LCgM%2BRo%3D\"}]}\n1 < Reporting-Endpoints: heroku-nel=https:\/\/nel.heroku.com\/reports?ts=1725478610&sid=c4c9725f-1ab0-44d8-820f-430df2718e11&s=3QZb5ag58%2FxD3kE1%2Bof2rjPwE4b5qwm9emR8LCgM%2BRo%3D\n1 < Nel: {\"report_to\":\"heroku-nel\",\"max_age\":3600,\"success_fraction\":0.005,\"failure_fraction\":0.05,\"response_headers\":[\"Via\"]}\n1 < X-Powered-By: Express\n1 < Access-Control-Allow-Origin: *\n1 < Etag: W\/\"2c1-N6Rqerxquq2kgQhL51EiSg4x0R8\"\n1 < Via: 1.1 vegur\n1 < Cache-Control: max-age=14400\n1 < CF-Cache-Status: HIT\n1 < Age: 521\n1 < Vary: Accept-Encoding\n1 < Server: cloudflare\n1 < CF-RAY: 8be07afb5ba6ab64-YYZ\n{\"page\":1,\"per_page\":6,\"total\":12,\"total_pages\":2,\"data\":[{\"id\":1,\"name\":\"cerulean\",\"year\":2000,\"color\":\"#98B2D1\",\"pantone_value\":\"15-4020\"},{\"id\":2,\"name\":\"fuchsia rose\",\"year\":2001,\"color\":\"#C74375\",\"pantone_value\":\"17-2031\"},{\"id\":3,\"name\":\"true red\",\"year\":2002,\"color\":\"#BF1932\",\"pantone_value\":\"19-1664\"},{\"id\":4,\"name\":\"aqua sky\",\"year\":2003,\"color\":\"#7BC4C4\",\"pantone_value\":\"14-4811\"},{\"id\":5,\"name\":\"tigerlily\",\"year\":2004,\"color\":\"#E2583E\",\"pantone_value\":\"17-1456\"},{\"id\":6,\"name\":\"blue turquoise\",\"year\":2005,\"color\":\"#53B0AE\",\"pantone_value\":\"15-5217\"}],\"support\":{\"url\":\"https:\/\/reqres.in\/#support-heading\",\"text\":\"To keep ReqRes free, contributions towards server costs are appreciated!\"}}\n\n"},{"result":{"nanos":500084,"startTime":1725479131402,"endTime":1725479131403,"millis":0.500084,"status":"passed"},"step":{"line":7,"prefix":"Then","index":2,"text":"status 200"}},{"result":{"nanos":155650250,"startTime":1725479131404,"endTime":1725479131560,"millis":155.65025,"status":"passed"},"step":{"line":8,"prefix":"And","index":3,"text":"match response ==  read('classpath:schema\/getListJSONSchema.json');"}}],"executorName":"main","line":4,"name":"get user list","description":"","durationMillis":1026.449876,"startTime":1725479130498,"failed":false,"refId":"[1:4]","endTime":1725479131560,"exampleIndex":-1}],"callDepth":0,"name":"Get list of user","description":"","resultDate":"2024-09-04 03:45:31 p.m.","durationMillis":1026.449876,"passedCount":1}